<!-- Generator: Adobe Illustrator 17.1.0, SVG Export Plug-In  -->
<svg version="1.1"
	 xmlns="http://www.w3.org/2000/svg" xmlns:xlink="http://www.w3.org/1999/xlink" xmlns:a="http://ns.adobe.com/AdobeSVGViewerExtensions/3.0/"
	 x="0px" y="0px" width="111.6px" height="111.6px" viewBox="0 0 111.6 111.6" enable-background="new 0 0 111.6 111.6"
	 xml:space="preserve">
<defs>
</defs>
<g>
	<g>
		<g>
			<circle id="SVGID_2_" fill="#FFFFFF" stroke="#EE333A" stroke-width="3" stroke-miterlimit="10" cx="55.8" cy="55.8" r="54.3"/>
		</g>
	</g>
	<g>
		<g id="tools-8-icon_1_">
			<path fill="#FFFFFF" d="M42.2,69c-0.4,0-0.7-0.3-0.7-0.7c0-0.4,0.3-0.7,0.7-0.7s0.7,0.3,0.7,0.7C42.9,68.7,42.5,69,42.2,69z
				 M42.3,46.6l5.5-5.5l21.6,21.6l-5.5,5.5L42.3,46.6z"/>
			<path fill="#EE333A" d="M47.8,42.6l20,20l-4,4l-20-20L47.8,42.6 M67.3,35.8l-9.5,9.5l1.5,1.5l8.1-8.1l4.5,4.5l-1.2,1.2l-1.3-1.3
				l-0.7,0.7l1.3,1.3L69,46l-1.3-1.3l-0.7,0.7l1.3,1.3l-0.8,0.8l-1.3-1.3l-0.7,0.7l1.3,1.3L66,49l-1.3-1.3l-0.7,0.7l1.3,1.3
				l-0.8,0.8l-1.3-1.3L62.4,50l2.8,2.8l9.5-9.5L67.3,35.8L67.3,35.8z M47.8,39.5l-7.1,7.1l23.1,23.1l7.1-7.1L47.8,39.5L47.8,39.5z
				 M46.6,56.5L34.7,68.4l7.4,7.4L54,63.9l-2.8-2.8l-0.7,0.7l1.3,1.3L51,64l-1.3-1.3l-0.7,0.7l1.3,1.3l-0.8,0.8l-1.3-1.3l-0.7,0.7
				l1.3,1.3L48,67l-1.3-1.3l-0.7,0.7l1.3,1.3l-5.1,5.1l-4.5-4.5l10.4-10.4L46.6,56.5L46.6,56.5z M42.2,66.6c-1,0-1.8,0.8-1.8,1.8
				c0,1,0.8,1.8,1.8,1.8c1,0,1.8-0.8,1.8-1.8C43.9,67.4,43.1,66.6,42.2,66.6L42.2,66.6z"/>
		</g>
		<g>
			
				<rect x="66.9" y="67.9" transform="matrix(-0.7071 0.7071 -0.7071 -0.7071 171.4884 69.3051)" fill="#FFFFFF" width="8.9" height="4.5"/>
			<path fill="#EE333A" d="M72.9,66.2l2.4,2.4l-5.5,5.5l-2.4-2.4L72.9,66.2 M72.9,64.6l-7.1,7.1l4,4l7.1-7.1L72.9,64.6L72.9,64.6z"
				/>
		</g>
		<g>
			<polygon fill="#FFFFFF" points="37.6,36.6 44.7,37.9 39.1,43.5 			"/>
			<path fill="#EE333A" d="M38.3,37.2l5.2,1l-4.2,4.2L38.3,37.2 M37,35.9l1.8,8.7l7.1-7.1L37,35.9L37,35.9z"/>
		</g>
	</g>
</g>
</svg>
