<?xml version="1.0" encoding="utf-8"?>
<!-- Generator: Adobe Illustrator 17.1.0, SVG Export Plug-In . SVG Version: 6.00 Build 0)  -->
<!DOCTYPE svg PUBLIC "-//W3C//DTD SVG 1.1//EN" "http://www.w3.org/Graphics/SVG/1.1/DTD/svg11.dtd">
<svg version="1.1" id="Layer_1" xmlns="http://www.w3.org/2000/svg" xmlns:xlink="http://www.w3.org/1999/xlink" x="0px" y="0px"
	 viewBox="123 56 102 31" enable-background="new 123 56 102 31" xml:space="preserve">
<g id="Layer_2" display="none">
	<rect display="inline" stroke="#FFFFFF" stroke-miterlimit="10" width="400" height="138"/>
</g>
<g id="Layer_1_1_">
	<g>
		<g>
			<g>
				<path fill="#D63E3C" d="M130.1,68.1c-1.3,3.2-0.6,6.8,1.8,9.3c1.7,1.7,3.7,3.2,5.6,4.7c0.3,0.2,0.5,0.2,0.8,0
					c1.9-1.5,3.9-3,5.6-4.7c2.4-2.4,3.1-5.3,2.1-8.5c-1-3.2-3.3-5.1-6.5-5.8c-0.5-0.1-1-0.1-1.5-0.1C134.5,63,131.4,65,130.1,68.1z"
					/>
			</g>
			<g>
				<path fill="#FFFFFF" d="M130.1,67.7c-1.3,3.2-0.6,6.8,1.8,9.3c1.7,1.7,3.7,3.2,5.6,4.7c0.3,0.2,0.5,0.2,0.8,0
					c1.9-1.5,3.9-3,5.6-4.7c2.4-2.4,3.1-5.3,2.1-8.5c-1-3.2-3.3-5.1-6.5-5.8c-0.5-0.1-1-0.1-1.5-0.1
					C134.5,62.6,131.4,64.6,130.1,67.7z"/>
			</g>
			<g opacity="5.000000e-002">
				<path fill="#010101" d="M146.2,68.4c-1-3.2-3.2-5.1-6.5-5.8c-0.5-0.1-1-0.1-1.5-0.1c-3.5,0-6.5,2-7.8,5.2
					c-1.3,3.2-0.6,6.8,1.8,9.3c0,0,3-4.2,6.2-6C141.6,69.2,146.2,68.4,146.2,68.4z"/>
			</g>
			<g>
				<path fill="#D63E3C" d="M143.1,69.2c0,1.1-0.7,1.9-1.6,2c-0.2,0-0.3,0.1-0.3,0.3c-0.1,0.4-0.2,0.8-0.3,1.3
					c0,0.1-0.1,0.2-0.3,0.2c-0.6-0.2-1.3-0.2-1.9-0.2c-1.1,0-2.3,0-3.4,0.2c-0.2,0-0.2-0.1-0.2-0.2c-0.1-0.4-0.2-0.9-0.3-1.3
					c0-0.2-0.1-0.2-0.3-0.2c-1.2-0.2-1.9-1.2-1.6-2.4c0.3-1.1,1.7-1.7,2.6-1.1c0.2,0.1,0.3,0.1,0.5-0.1c1-1.2,2.9-1.2,3.9,0
					c0.1,0.2,0.2,0.2,0.4,0.1c0.6-0.4,1.3-0.3,1.9,0C142.8,68.1,143.1,68.7,143.1,69.2z"/>
				<path fill="#D63E3C" d="M141,76.3c0.4,0.2,0.3,0.7,0.1,0.9c-0.2,0.2-0.5,0.3-0.7,0.3c-0.4,0.1-0.9,0.1-1.3-0.1
					c-0.4-0.1-0.7-0.3-1-0.7c-0.1-0.1-0.1-0.2-0.2,0c-0.5,0.9-1.9,1-2.7,0.7c-0.2-0.1-0.3-0.2-0.4-0.3c-0.2-0.3-0.2-0.6,0.1-0.8
					c0.1,0.1,0,0.1,0,0.2c0,0.2,0.2,0.4,0.4,0.3c0.1,0,0.2-0.1,0.3-0.2c0.1-0.2,0.3-0.3,0.4-0.5c0.5-0.5,1.4-0.6,1.9-0.1
					c0.1,0.1,0.2,0.1,0.3,0c0.6-0.5,1.4-0.4,1.9,0.1c0.1,0.1,0.3,0.3,0.4,0.5c0.1,0.1,0.1,0.2,0.2,0.2c0.1,0.1,0.2,0.1,0.4,0
					c0.1-0.1,0.1-0.2,0.1-0.3C141,76.4,141,76.4,141,76.3z"/>
				<g>
					<g>
						<path fill="#D63E3C" d="M136.7,73.3c0.2,0,0.6,0,0.8,0.1c0.3,0.2-0.4,0.2-0.5,0.2c-0.2,0.1-0.5,0.2-0.7,0.3
							c-0.2,0.1-0.4,0.2-0.6,0.3c-0.1,0-0.5,0.4-0.5,0.3c-0.1-0.1,0.3-0.5,0.4-0.6c0.2-0.2,0.3-0.4,0.6-0.5
							C136.3,73.4,136.5,73.3,136.7,73.3z"/>
					</g>
					<g>
						<path fill="#D63E3C" d="M139.5,73.3c-0.2,0-0.6,0-0.8,0.1c-0.3,0.2,0.4,0.2,0.5,0.2c0.2,0.1,0.5,0.2,0.7,0.3
							c0.2,0.1,0.4,0.2,0.6,0.3c0.1,0,0.5,0.4,0.5,0.3c0.1-0.1-0.3-0.5-0.4-0.6c-0.2-0.2-0.3-0.4-0.6-0.5
							C139.8,73.4,139.7,73.3,139.5,73.3z"/>
					</g>
				</g>
			</g>
		</g>
		<text transform="matrix(1 0 0 1 153.7278 77.3388)" fill="#FFFFFF" font-family="'BrandonGrotesque-Medium'" font-size="21.0561">JuzDine</text>
	</g>
</g>
</svg>
